1 Grouping data | R Handbook for Epidemiologists
…
1.3 group_by()

Grouping by one or more columns establishes that any subsequent calculations will be performed within the context of each unique group.

For example, to group by unique values in one column, outcome, we would run the code below, placing outcome within group_by().

ll_by_outcome <- linelist %>% 
  group_by(outcome)

Note that there is no change to the dataset until a dplyr** verb such as mutate() or summarise() is applied on the “grouped” dataframe. We can however “see” the groupings by printing. When you print a grouped dataframe, you will see it has been transformed into a tibble class object (LINK) which when printed displays which grouping columns have been applied and how many groups there are - written just above the header row.

# print to see which groups are active
ll_by_outcome

## # A tibble: 6,464 x 30
## # Groups:   outcome [3]
##    case_id generation date_infection date_onset date_hospitalis~ date_outcome outcome gender   age age_unit age_years age_cat age_cat5 hospital   lon   lat infector
##    <chr>        <dbl> <date>         <date>     <date>           <date>       <chr>   <chr>  <dbl> <chr>        <dbl> <fct>   <fct>    <chr>    <dbl> <dbl> <chr>   
##  1 6c286a           2 NA             2014-04-27 2014-04-27       2014-05-07   Death   f          5 years            5 5-9     5-9      Missing  -13.2  8.46 <NA>    
##  2 a3c8b8           4 2014-05-07     2014-05-08 2014-05-10       2014-05-14   Recover m         18 years           18 15-19   15-19    Port Ho~ -13.2  8.47 2ae019  
##  3 d8a13d           4 2014-05-06     2014-05-08 2014-05-10       NA           <NA>    f         21 years           21 20-29   20-24    St. Mar~ -13.2  8.46 20b688  
##  4 72b905           4 2014-05-06     2014-05-12 2014-05-13       NA           Recover m         26 years           26 20-29   25-29    Other    -13.2  8.47 2ae019  
##  5 be99c8           3 2014-05-03     2014-05-22 2014-05-23       2014-05-24   Recover f         18 years           18 15-19   15-19    Port Ho~ -13.2  8.46 aec8ec  
##  6 566f9e           3 2014-05-24     2014-05-27 2014-05-28       2014-06-03   Recover m          2 years            2 0-4     0-4      Other    -13.2  8.48 be7f8a  
##  7 ce9c02           5 2014-05-27     2014-05-27 2014-05-29       2014-06-17   Death   m         23 years           23 20-29   20-24    Port Ho~ -13.2  8.47 53da57  
##  8 acf422           6 2014-05-25     2014-05-27 2014-05-28       2014-06-27   Recover m         32 years           32 30-49   30-34    Central~ -13.3  8.48 1511c5  
##  9 275cc7           5 2014-05-24     2014-05-27 2014-05-28       2014-06-07   Death   f          2 years            2 0-4     0-4      Central~ -13.2  8.47 e02f66  
## 10 dbebea           7 NA             2014-06-02 2014-06-03       2014-06-05   <NA>    m         11 years           11 10-14   10-14    Port Ho~ -13.2  8.49 <NA>    
## # ... with 6,454 more rows, and 13 more variables: source <chr>, wt_kg <dbl>, ht_cm <dbl>, ct_blood <dbl>, fever <chr>, chills <chr>, cough <chr>, aches <chr>,
## #   vomit <chr>, temp <dbl>, time_admission <chr>, bmi <dbl>, days_onset_hosp <dbl>
…
Group the linelist by column hospital

Arrange the records from latest to earliest date_hospitalisation within each hospital group

Slice to retrieve the first 5 rows

linelist %>%
  group_by(hospital) %>%
  arrange(hospital, date_hospitalisation) %>%
  slice_head(n = 5) %>% 
  arrange(hospital) %>% 
  select(case_id, hospital, date_hospitalisation)

## # A tibble: 30 x 3
## # Groups:   hospital [6]
##    case_id hospital          date_hospitalisation
##    <chr>   <chr>             <date>              
##  1 20b688  Central Hospital  2014-05-06          
##  2 d58402  Central Hospital  2014-05-10          
##  3 b8f2fd  Central Hospital  2014-05-13          
##  4 acf422  Central Hospital  2014-05-28          
##  5 275cc7  Central Hospital  2014-05-28          
##  6 d1fafd  Military Hospital 2014-04-17          
##  7 974bc1  Military Hospital 2014-05-13          
##  8 6a9004  Military Hospital 2014-05-13          
##  9 09e386  Military Hospital 2014-05-14          
## 10 865581  Military Hospital 2014-05-15          
## # ... with 20 more rows
…
  # new columns
  mutate(
    # mean days to admission per hospital (rounded to 1 decimal)
    group_delay_admit = round(mean(days_onset_hosp, na.rm=T), 1),
    
    # difference between row's delay and mean delay at their hospital (rounded to 1 decimal)
    diff_to_group     = round(days_onset_hosp - group_delay_admit, 1)) %>%
  
  # select certain rows only - for demonstration/viewing purposes
  select(case_id, hospital, days_onset_hosp, group_delay_admit, diff_to_group)

## # A tibble: 6,464 x 5
## # Groups:   hospital [6]
##    case_id hospital                             days_onset_hosp group_delay_admit diff_to_group
##    <chr>   <chr>                                          <dbl>             <dbl>         <dbl>
##  1 6c286a  Missing                                            0               2            -2  
##  2 a3c8b8  Port Hospital                                      2               1.9           0.1
##  3 d8a13d  St. Mark's Maternity Hospital (SMMH)               2               2             0  
##  4 72b905  Other                                              1               1.9          -0.9
##  5 be99c8  Port Hospital                                      1               1.9          -0.9
##  6 566f9e  Other                                              1               1.9          -0.9
##  7 ce9c02  Port Hospital                                      2               1.9           0.1
##  8 acf422  Central Hospital                                   1               1.8          -0.8
##  9 275cc7  Central Hospital                                   1               1.8          -0.8
## 10 dbebea  Port Hospital                                      1               1.9          -0.9
## # ... with 6,454 more rows
…
