44 Dashboards with Shiny | The Epidemiologist R Handbook
…
Develop a function to visualise our data based on user inputs

This list is pretty straightforward, and shouldn’t be too hard to do. It’s now important to think about which parts of this process need to be done only once and which parts need to run in response to user inputs. This is because shiny apps generally run some code before running, which is only performed once. It will help our app’s performance if as much of our code can be moved to this section. For this example, we only need to load our data/packages and do basic transformations once, so we can put that code outside the server. This means the only thing we’ll need in the server is the code to visualise our data. Lets develop all of these componenets in a script first. However, since we’re visualising our data with a function, we can also put the code for the function outside the server so our function is in the environment when the app runs!

First lets load our data. Since we’re working with a new project, and we want to make it clean, we can create a new directory called data, and add our malaria data in there. We can run this code below in a testing script we will eventually delete when we clean up the structure of our app.

pacman::p_load("tidyverse", "lubridate")

# read data
malaria_data <- rio::import(here::here("data", "malaria_facility_count_data.rds")) %>% 
  as_tibble()

print(malaria_data)

## # A tibble: 3,038 x 10
##    location_name data_date  submitted_date Province District `malaria_rdt_0-4` `malaria_rdt_5-14` malaria_rdt_15
##    <chr>         <date>     <date>         <chr>    <chr>                <int>              <int>          <int>
##  1 Facility 1    2019-06-13 2019-06-14     North    Spring                  11                 12             23
##  2 Facility 2    2019-06-13 2019-06-14     North    Bolo                    11                 10              5
##  3 Facility 3    2019-06-13 2019-06-14     North    Dingo                    8                  5              5
##  4 Facility 4    2019-06-13 2019-06-14     North    Bolo                    16                 16             17
##  5 Facility 5    2019-06-13 2019-06-14     North    Bolo                     9                  2              6
##  6 Facility 6    2019-06-13 2019-06-14     North    Dingo                    3                  1              4
##  7 Facility 6    2019-06-12 2019-06-14     North    Dingo                    4                  0              3
##  8 Facility 5    2019-06-12 2019-06-14     North    Bolo                    15                 14             13
##  9 Facility 5    2019-06-11 2019-06-14     North    Bolo                    11                 11             13
## 10 Facility 5    2019-06-10 2019-06-14     North    Bolo                    19                 15             15
## # ... with 3,028 more rows, and 2 more variables: malaria_tot <int>, newid <int>

It will be easier to work with this data if we use tidy data standards, so we should also transform into a longer data format, where age group is a column, and cases is another column. We can do this easily using what we’ve learned in the xxx section:

malaria_data <- malaria_data %>%
  select(-newid) %>%
  pivot_longer(cols = starts_with("malaria_"), names_to = "age_group", values_to = "cases_reported")

print(malaria_data)

## # A tibble: 12,152 x 7
##    location_name data_date  submitted_date Province District age_group        cases_reported
##    <chr>         <date>     <date>         <chr>    <chr>    <chr>                     <int>
##  1 Facility 1    2019-06-13 2019-06-14     North    Spring   malaria_rdt_0-4              11
##  2 Facility 1    2019-06-13 2019-06-14     North    Spring   malaria_rdt_5-14             12
##  3 Facility 1    2019-06-13 2019-06-14     North    Spring   malaria_rdt_15               23
##  4 Facility 1    2019-06-13 2019-06-14     North    Spring   malaria_tot                  46
##  5 Facility 2    2019-06-13 2019-06-14     North    Bolo     malaria_rdt_0-4              11
##  6 Facility 2    2019-06-13 2019-06-14     North    Bolo     malaria_rdt_5-14             10
##  7 Facility 2    2019-06-13 2019-06-14     North    Bolo     malaria_rdt_15                5
##  8 Facility 2    2019-06-13 2019-06-14     North    Bolo     malaria_tot                  26
##  9 Facility 3    2019-06-13 2019-06-14     North    Dingo    malaria_rdt_0-4               8
## 10 Facility 3    2019-06-13 2019-06-14     North    Dingo    malaria_rdt_5-14              5
## # ... with 12,142 more rows
…
