16 Descriptive analysis | R Handbook for Epidemiologists
…
16.5.2.3 Three way table

Producing counts based on three variables (adding a stratifier).

linelist %>% 
  ## do everything by gender and outcome 
  group_by(gender, outcome) %>% 
  ## count the variable of interest 
  count(fever) %>% 
  ## calculate the proportion
  ## note that the denominator here is the sum of each group combination
  mutate(percentage = n / sum(n) * 100)

## # A tibble: 27 x 5
## # Groups:   gender, outcome [9]
##    gender outcome fever     n percentage
##    <chr>  <chr>   <chr> <int>      <dbl>
##  1 f      Death   no      215      17.2 
##  2 f      Death   yes     980      78.6 
##  3 f      Death   <NA>     52       4.17
##  4 f      Recover no      165      17.4 
##  5 f      Recover yes     749      78.9 
##  6 f      Recover <NA>     35       3.69
##  7 f      <NA>    no      132      20.6 
##  8 f      <NA>    yes     484      75.6 
##  9 f      <NA>    <NA>     24       3.75
## 10 m      Death   no      234      19.4 
## # ... with 17 more rows
…
