11 Grouping data | R Handbook for Epidemiologists
…
The function group_by() from dplyr groups the rows by the unique values in the specified columns. Each unique value contitutes a group (or unique combination of values, if multiple grouping columns are specified). Subsequent changes to the dataset or calculations can then be performed within the context of each unique group.

For example, the command below takes the linelist and groups the rows by unique values in column outcome, saving the output as a new dataframe ll_by_outcome. The grouping column name is placed inside the parentheses of the function group_by().

ll_by_outcome <- linelist %>% 
  group_by(outcome)

Note that there is no perceptible change to the dataset after group_by(), until another dplyr verb such as mutate() or summarise() is applied on the “grouped” dataframe.

You can however “see” the groupings by printing the dataframe. When you print a grouped dataframe, you will see it has been transformed into a tibble class object (LINK) which, when printed, displays which grouping columns have been applied and how many groups there are - written just above the header row.

# print to see which groups are active
ll_by_outcome

## # A tibble: 5,888 x 30
## # Groups:   outcome [3]
##    case_id generation date_infection date_onset date_hospitalis~ date_outcome outcome gender   age age_unit age_years age_cat
##    <chr>        <dbl> <date>         <date>     <date>           <date>       <chr>   <chr>  <dbl> <chr>        <dbl> <fct>  
##  1 b8f2fd           5 2014-05-07     2014-05-12 2014-05-13       2014-05-18   <NA>    f         10 years           10 10-14  
##  2 8689b7           4 NA             2014-05-13 2014-05-14       2014-05-18   Recover f          9 years            9 5-9    
##  3 f96aa5           3 2014-05-17     2014-05-19 2014-05-20       2014-05-23   Recover m         16 years           16 15-19  
##  4 9e0998           4 NA             2014-05-26 2014-05-27       2014-06-02   Death   m         10 years           10 10-14  
##  5 56d39e           5 NA             2014-05-27 2014-05-28       NA           Death   f          3 years            3 0-4    
##  6 275cc7           5 2014-05-24     2014-05-27 2014-05-28       2014-06-07   Death   f         14 years           14 10-14  
##  7 db4b96           3 2014-05-16     2014-05-31 2014-06-01       NA           Death   m          8 years            8 5-9    
##  8 5387a2           4 2014-05-26     2014-05-31 2014-05-31       2014-06-17   Death   m         15 years           15 15-19  
##  9 8a4580           4 NA             2014-06-02 2014-06-02       NA           Death   m         23 years           23 20-29  
## 10 ab034a           4 NA             2014-06-03 2014-06-05       2014-06-11   Death   f          5 years            5 5-9    
## # ... with 5,878 more rows, and 18 more variables: age_cat5 <fct>, hospital <chr>, lon <dbl>, lat <dbl>, infector <chr>,
## #   source <chr>, wt_kg <dbl>, ht_cm <dbl>, ct_blood <dbl>, fever <chr>, chills <chr>, cough <chr>, aches <chr>, vomit <chr>,
## #   temp <dbl>, time_admission <chr>, bmi <dbl>, days_onset_hosp <dbl>
…
Group the linelist by column hospital

Arrange the records from latest to earliest date_hospitalisation within each hospital group

Slice to retrieve the first 5 rows from each hospital

linelist %>%
  group_by(hospital) %>%
  arrange(hospital, date_hospitalisation) %>%
  slice_head(n = 5) %>% 
  arrange(hospital) %>% 
  select(case_id, hospital, date_hospitalisation)

## # A tibble: 30 x 3
## # Groups:   hospital [6]
##    case_id hospital          date_hospitalisation
##    <chr>   <chr>             <date>              
##  1 20b688  Central Hospital  2014-05-06          
##  2 d58402  Central Hospital  2014-05-10          
##  3 b8f2fd  Central Hospital  2014-05-13          
##  4 275cc7  Central Hospital  2014-05-28          
##  5 acf422  Central Hospital  2014-05-28          
##  6 d1fafd  Military Hospital 2014-04-17          
##  7 974bc1  Military Hospital 2014-05-13          
##  8 6a9004  Military Hospital 2014-05-13          
##  9 09e386  Military Hospital 2014-05-14          
## 10 865581  Military Hospital 2014-05-15          
## # ... with 20 more rows
…
  # new columns
  mutate(
    # mean days to admission per hospital (rounded to 1 decimal)
    group_delay_admit = round(mean(days_onset_hosp, na.rm=T), 1),
    
    # difference between row's delay and mean delay at their hospital (rounded to 1 decimal)
    diff_to_group     = round(days_onset_hosp - group_delay_admit, 1)) %>%
  
  # select certain rows only - for demonstration/viewing purposes
  select(case_id, hospital, days_onset_hosp, group_delay_admit, diff_to_group)

## # A tibble: 5,888 x 5
## # Groups:   hospital [6]
##    case_id hospital                             days_onset_hosp group_delay_admit diff_to_group
##    <chr>   <chr>                                          <dbl>             <dbl>         <dbl>
##  1 b8f2fd  Central Hospital                                   1               1.9          -0.9
##  2 8689b7  Missing                                            1               2            -1  
##  3 f96aa5  St. Mark's Maternity Hospital (SMMH)               1               2            -1  
##  4 9e0998  Other                                              1               2            -1  
##  5 56d39e  St. Mark's Maternity Hospital (SMMH)               1               2            -1  
##  6 275cc7  Central Hospital                                   1               1.9          -0.9
##  7 db4b96  Missing                                            1               2            -1  
##  8 5387a2  Port Hospital                                      0               2            -2  
##  9 8a4580  Military Hospital                                  0               2.1          -2.1
## 10 ab034a  Port Hospital                                      2               2             0  
## # ... with 5,878 more rows
…
