11 Pivoting data | The Epidemiologist R Handbook
…
pivot_longer()

First, let’s begin by loading our packages and converting count_data to a tibble for easy printing:

pacman::p_load(tidyverse)

# Convert count_data to `tibble` for better printing
count_data <- 
  count_data %>% 
  as_tibble() 

count_data

## # A tibble: 3,038 x 10
##    location_name data_date  submitted_date Province District `malaria_rdt_0-4` `malaria_rdt_5-14` malaria_rdt_15 malaria_tot newid
##    <chr>         <date>     <date>         <chr>    <chr>                <int>              <int>          <int>       <int> <int>
##  1 Facility 1    2019-06-13 2019-06-14     North    Spring                  11                 12             23          46     1
##  2 Facility 2    2019-06-13 2019-06-14     North    Bolo                    11                 10              5          26     2
##  3 Facility 3    2019-06-13 2019-06-14     North    Dingo                    8                  5              5          18     3
##  4 Facility 4    2019-06-13 2019-06-14     North    Bolo                    16                 16             17          49     4
##  5 Facility 5    2019-06-13 2019-06-14     North    Bolo                     9                  2              6          17     5
##  6 Facility 6    2019-06-13 2019-06-14     North    Dingo                    3                  1              4           8     6
##  7 Facility 6    2019-06-12 2019-06-14     North    Dingo                    4                  0              3           7     6
##  8 Facility 5    2019-06-12 2019-06-14     North    Bolo                    15                 14             13          42     5
##  9 Facility 5    2019-06-11 2019-06-14     North    Bolo                    11                 11             13          35     5
## 10 Facility 5    2019-06-10 2019-06-14     North    Bolo                    19                 15             15          49     5
## # ... with 3,028 more rows

Next, we want to use tidyr’s pivot_longer() function to convert the wide dataset to a long format, converting the four columns with data on malaria counts to two new columns: one which captures the variable name and one which captures the values from the cells. Since these four variables all begin with the prefix malaria_, we can make use of the handy function starts_with().

df_long <- 
  count_data %>% 
  pivot_longer(
    cols = starts_with("malaria_")
  )

df_long

## # A tibble: 12,152 x 8
##    location_name data_date  submitted_date Province District newid name             value
##    <chr>         <date>     <date>         <chr>    <chr>    <int> <chr>            <int>
##  1 Facility 1    2019-06-13 2019-06-14     North    Spring       1 malaria_rdt_0-4     11
##  2 Facility 1    2019-06-13 2019-06-14     North    Spring       1 malaria_rdt_5-14    12
##  3 Facility 1    2019-06-13 2019-06-14     North    Spring       1 malaria_rdt_15      23
##  4 Facility 1    2019-06-13 2019-06-14     North    Spring       1 malaria_tot         46
##  5 Facility 2    2019-06-13 2019-06-14     North    Bolo         2 malaria_rdt_0-4     11
##  6 Facility 2    2019-06-13 2019-06-14     North    Bolo         2 malaria_rdt_5-14    10
##  7 Facility 2    2019-06-13 2019-06-14     North    Bolo         2 malaria_rdt_15       5
##  8 Facility 2    2019-06-13 2019-06-14     North    Bolo         2 malaria_tot         26
##  9 Facility 3    2019-06-13 2019-06-14     North    Dingo        3 malaria_rdt_0-4      8
## 10 Facility 3    2019-06-13 2019-06-14     North    Dingo        3 malaria_rdt_5-14     5
## # ... with 12,142 more rows

However, we could also have specified the columns by position:

count_data %>% 
  pivot_longer(
    cols = 6:9
  )

## # A tibble: 12,152 x 8
##    location_name data_date  submitted_date Province District newid name             value
##    <chr>         <date>     <date>         <chr>    <chr>    <int> <chr>            <int>
##  1 Facility 1    2019-06-13 2019-06-14     North    Spring       1 malaria_rdt_0-4     11
##  2 Facility 1    2019-06-13 2019-06-14     North    Spring       1 malaria_rdt_5-14    12
##  3 Facility 1    2019-06-13 2019-06-14     North    Spring       1 malaria_rdt_15      23
##  4 Facility 1    2019-06-13 2019-06-14     North    Spring       1 malaria_tot         46
##  5 Facility 2    2019-06-13 2019-06-14     North    Bolo         2 malaria_rdt_0-4     11
##  6 Facility 2    2019-06-13 2019-06-14     North    Bolo         2 malaria_rdt_5-14    10
##  7 Facility 2    2019-06-13 2019-06-14     North    Bolo         2 malaria_rdt_15       5
##  8 Facility 2    2019-06-13 2019-06-14     North    Bolo         2 malaria_tot         26
##  9 Facility 3    2019-06-13 2019-06-14     North    Dingo        3 malaria_rdt_0-4      8
## 10 Facility 3    2019-06-13 2019-06-14     North    Dingo        3 malaria_rdt_5-14     5
## # ... with 12,142 more rows

or by named range:

count_data %>% 
  pivot_longer(
    cols = `malaria_rdt_0-4`:malaria_tot
  )

## # A tibble: 12,152 x 8
##    location_name data_date  submitted_date Province District newid name             value
##    <chr>         <date>     <date>         <chr>    <chr>    <int> <chr>            <int>
##  1 Facility 1    2019-06-13 2019-06-14     North    Spring       1 malaria_rdt_0-4     11
##  2 Facility 1    2019-06-13 2019-06-14     North    Spring       1 malaria_rdt_5-14    12
##  3 Facility 1    2019-06-13 2019-06-14     North    Spring       1 malaria_rdt_15      23
##  4 Facility 1    2019-06-13 2019-06-14     North    Spring       1 malaria_tot         46
##  5 Facility 2    2019-06-13 2019-06-14     North    Bolo         2 malaria_rdt_0-4     11
##  6 Facility 2    2019-06-13 2019-06-14     North    Bolo         2 malaria_rdt_5-14    10
##  7 Facility 2    2019-06-13 2019-06-14     North    Bolo         2 malaria_rdt_15       5
##  8 Facility 2    2019-06-13 2019-06-14     North    Bolo         2 malaria_tot         26
##  9 Facility 3    2019-06-13 2019-06-14     North    Dingo        3 malaria_rdt_0-4      8
## 10 Facility 3    2019-06-13 2019-06-14     North    Dingo        3 malaria_rdt_5-14     5
## # ... with 12,142 more rows
Notice that the newly created dataframe (df_long) has more rows (12,152 vs 3,038); it has become longer. In fact, it is precisely four times as long, because each row in the original dataset now represents four rows in df_long, one for each of the malaria count observations (<4y, 5-14y, 15y+, and total).

In addition to becoming longer, the new dataset has fewer columns (8 vs 10), as the data previously stored in four columns (those beginning with the prefix malaria_) is now stored in two. These two columns are given the default names of name and value, but we can override these defaults to provide more meaningful names, which can help remember what is stored within, using the names_to and values_to arguments. Let’s use the names age_group and count:

df_long <- 
  count_data %>% 
  pivot_longer(
    cols = starts_with("malaria_"),
    names_to = "age_group",
    values_to = "counts"
  )

df_long

## # A tibble: 12,152 x 8
##    location_name data_date  submitted_date Province District newid age_group        counts
##    <chr>         <date>     <date>         <chr>    <chr>    <int> <chr>             <int>
##  1 Facility 1    2019-06-13 2019-06-14     North    Spring       1 malaria_rdt_0-4      11
##  2 Facility 1    2019-06-13 2019-06-14     North    Spring       1 malaria_rdt_5-14     12
##  3 Facility 1    2019-06-13 2019-06-14     North    Spring       1 malaria_rdt_15       23
##  4 Facility 1    2019-06-13 2019-06-14     North    Spring       1 malaria_tot          46
##  5 Facility 2    2019-06-13 2019-06-14     North    Bolo         2 malaria_rdt_0-4      11
##  6 Facility 2    2019-06-13 2019-06-14     North    Bolo         2 malaria_rdt_5-14     10
##  7 Facility 2    2019-06-13 2019-06-14     North    Bolo         2 malaria_rdt_15        5
##  8 Facility 2    2019-06-13 2019-06-14     North    Bolo         2 malaria_tot          26
##  9 Facility 3    2019-06-13 2019-06-14     North    Dingo        3 malaria_rdt_0-4       8
## 10 Facility 3    2019-06-13 2019-06-14     North    Dingo        3 malaria_rdt_5-14      5
## # ... with 12,142 more rows
…
