36 Transmission chains | R Handbook for Epidemiologists
…
## view epicontacts object
epic

## 
## /// Epidemiological Contacts //
## 
##   // class: epicontacts
##   // 5,888 cases in linelist; 3,800 contacts; directed 
## 
##   // linelist
## 
## # A tibble: 5,888 x 30
##    id    age_unit   age source infector   lat   lon hospital gender age_years age_cat age_cat5 date_outcome outcome generation date_infection date_onset
##    <chr> <chr>    <dbl> <chr>  <chr>    <dbl> <dbl> <chr>    <chr>      <dbl> <fct>   <fct>    <date>       <chr>        <dbl> <date>         <date>    
##  1 40ae~ years       22 other  8508df    8.49 -13.3 Port Ho~ f             22 20-29   20-24    NA           <NA>             4 2014-05-04     NA        
##  2 b881~ years        6 other  f90f5f    8.48 -13.2 Port Ho~ f              6 5-9     5-9      NA           <NA>             3 2014-05-04     2014-05-18
##  3 f96a~ years       14 other  11f8ea    8.46 -13.3 St. Mar~ m             14 10-14   10-14    2014-05-23   Recover          3 2014-05-17     2014-05-19
##  4 47a5~ years       20 other  7a9f33    8.49 -13.3 Missing  m             20 20-29   20-24    2014-06-06   Recover          3 2014-05-03     2014-05-26
##  5 566f~ years        4 other  be7f8a    8.48 -13.2 Other    m              4 0-4     0-4      2014-06-03   Recover          3 2014-05-24     2014-05-27
##  6 acf4~ years       27 other  1511c5    8.48 -13.3 Central~ m             27 20-29   25-29    2014-06-27   Recover          6 2014-05-25     2014-05-27
##  7 ce9c~ years       22 other  53da57    8.47 -13.2 Port Ho~ m             22 20-29   20-24    2014-06-17   Death            5 2014-05-27     2014-05-27
##  8 56d3~ years        4 <NA>   <NA>      8.45 -13.2 St. Mar~ f              4 0-4     0-4      NA           Death            5 NA             2014-05-27
##  9 07e3~ years       17 other  893f25    8.46 -13.2 Missing  f             17 15-19   15-19    2014-06-01   Recover          4 2014-05-22     2014-05-27
## 10 dbeb~ years       17 <NA>   <NA>      8.49 -13.2 Port Ho~ m             17 15-19   15-19    2014-06-05   <NA>             7 NA             2014-06-02
## # ... with 5,878 more rows, and 13 more variables: date_hospitalisation <date>, wt_kg <dbl>, ht_cm <dbl>, ct_blood <dbl>, fever <chr>, chills <chr>, cough <chr>,
## #   aches <chr>, vomit <chr>, temp <dbl>, time_admission <chr>, bmi <dbl>, days_onset_hosp <dbl>
## 
##   // contacts
## 
## # A tibble: 3,800 x 4
##    from   to     location   duration
##    <chr>  <chr>  <chr>         <int>
##  1 8508df 40ae5f Community         8
##  2 f90f5f b8812a Nosocomial        7
##  3 11f8ea f96aa5 Community         8
##  4 7a9f33 47a5f5 Nosocomial       10
##  5 be7f8a 566f9e Nosocomial        8
##  6 1511c5 acf422 Nosocomial        3
##  7 53da57 ce9c02 Nosocomial        3
##  8 893f25 07e3e8 Nosocomial        4
##  9 dae8c7 7e95d1 Nosocomial        8
## 10 996f3a 2978ac Community         6
## # ... with 3,790 more rows
…
## 
## /// Epidemiological Contacts //
## 
##   // class: epicontacts
##   // 69 cases in linelist; 1,885 contacts; directed 
## 
##   // linelist
## 
## # A tibble: 69 x 30
##    id    age_unit   age source infector   lat   lon hospital gender age_years age_cat age_cat5 date_outcome outcome generation date_infection date_onset
##    <chr> <chr>    <dbl> <chr>  <chr>    <dbl> <dbl> <chr>    <chr>      <dbl> <fct>   <fct>    <date>       <chr>        <dbl> <date>         <date>    
##  1 f96a~ years       14 other  11f8ea    8.46 -13.3 St. Mar~ m             14 10-14   10-14    2014-05-23   Recover          3 2014-05-17     2014-05-19
##  2 47a5~ years       20 other  7a9f33    8.49 -13.3 Missing  m             20 20-29   20-24    2014-06-06   Recover          3 2014-05-03     2014-05-26
##  3 566f~ years        4 other  be7f8a    8.48 -13.2 Other    m              4 0-4     0-4      2014-06-03   Recover          3 2014-05-24     2014-05-27
##  4 acf4~ years       27 other  1511c5    8.48 -13.3 Central~ m             27 20-29   25-29    2014-06-27   Recover          6 2014-05-25     2014-05-27
##  5 ce9c~ years       22 other  53da57    8.47 -13.2 Port Ho~ m             22 20-29   20-24    2014-06-17   Death            5 2014-05-27     2014-05-27
##  6 2978~ years       18 other  996f3a    8.48 -13.2 Port Ho~ m             18 15-19   15-19    2014-06-15   Death            4 2014-05-30     2014-06-06
##  7 c36e~ years       16 other  057e7a    8.48 -13.3 Port Ho~ m             16 15-19   15-19    2014-06-24   Death            8 2014-06-15     2014-06-20
##  8 9e74~ years       26 other  02d8fd    8.47 -13.2 St. Mar~ m             26 20-29   25-29    2014-07-08   Recover         10 2014-06-20     2014-06-22
##  9 7157~ years        4 other  542d07    8.48 -13.2 Port Ho~ m              4 0-4     0-4      2014-07-11   Death            6 2014-06-23     2014-07-05
## 10 90e5~ years       11 other  ea3740    8.46 -13.3 Port Ho~ m             11 10-14   10-14    2014-07-16   <NA>             5 2014-06-18     2014-07-13
## # ... with 59 more rows, and 13 more variables: date_hospitalisation <date>, wt_kg <dbl>, ht_cm <dbl>, ct_blood <dbl>, fever <chr>, chills <chr>, cough <chr>,
## #   aches <chr>, vomit <chr>, temp <dbl>, time_admission <chr>, bmi <dbl>, days_onset_hosp <dbl>
## 
##   // contacts
## 
## # A tibble: 1,885 x 4
##    from   to     location   duration
##    <chr>  <chr>  <chr>         <int>
##  1 f90f5f b8812a Nosocomial        7
##  2 7a9f33 47a5f5 Nosocomial       10
##  3 be7f8a 566f9e Nosocomial        8
##  4 1511c5 acf422 Nosocomial        3
##  5 53da57 ce9c02 Nosocomial        3
##  6 893f25 07e3e8 Nosocomial        4
##  7 dae8c7 7e95d1 Nosocomial        8
##  8 057e7a c36eb4 Nosocomial        2
##  9 b799eb bc2adf Nosocomial        7
## 10 3e6957 1c1848 Nosocomial        2
## # ... with 1,875 more rows
…
